{
  "lock": false,
  "tasks": {
    "dev": "deno run --allow-net --allow-env --allow-read --allow-write --watch src/server.ts",
    "test": "DB_PATH=\":memory:\" SECRET_KEY=testing123 deno test --allow-net --allow-env --allow-read --allow-write",
    "clean": "rm -rf /tmp/deno_cache"
  },
  "imports": {
    "@/": "./src/"
  },
  "lint": {
    "include": ["src/"],
    "rules": {
      "tags": ["recommended"],
      "exclude": ["no-explicit-any"]
    }
  },
  "fmt": {
    "include": ["src/"],
    "useTabs": false,
    "lineWidth": 120,
    "indentWidth": 2,
    "semiColons": true,
    "singleQuote": true,
    "proseWrap": "preserve"
  }
}