{
  "@context": [
    "https://www.w3.org/ns/activitystreams",
    "https://gleasonator.com/schemas/litepub-0.1.jsonld",
    {
      "@language": "und"
    }
  ],
  "actor": "https://gleasonator.com/users/alex",
  "attachment": [
    {
      "blurhash": "MnR3f,%M%2%MjZ~Wj@j[t7Rjs:ayfkj[WB",
      "height": 704,
      "mediaType": "image/png",
      "name": "",
      "type": "Document",
      "url": "https://media.gleasonator.com/074862413a7fe1d18a2bee0f626280c8f795b392e9400419cc34ca4f3cb560ee.png",
      "width": 1342
    }
  ],
  "attributedTo": "https://gleasonator.com/users/alex",
  "cc": [
    "https://gleasonator.com/users/alex/followers"
  ],
  "content": "<p>Been goin hard on the Open Source Software.</p>",
  "context": "https://gleasonator.com/contexts/96d11f73-87b1-4326-91ff-609dae38e6ed",
  "conversation": "https://gleasonator.com/contexts/96d11f73-87b1-4326-91ff-609dae38e6ed",
  "id": "https://gleasonator.com/objects/f69208ca-632e-4c0b-a478-6ef5a19ed722",
  "published": "2022-01-30T02:20:50.496139Z",
  "quotesCount": 1,
  "repliesCount": 7,
  "sensitive": false,
  "source": "Been goin hard on the Open Source Software.",
  "summary": "",
  "tag": [],
  "to": [
    "https://www.w3.org/ns/activitystreams#Public"
  ],
  "type": "Note"
}
