{
  "aliases": [
    "https://gleasonator.com/users/alex",
    "https://mitra.social/users/alex"
  ],
  "links": [
    {
      "href": "https://gleasonator.com/users/alex",
      "rel": "http://webfinger.net/rel/profile-page",
      "type": "text/html"
    },
    {
      "href": "https://gleasonator.com/users/alex",
      "rel": "self",
      "type": "application/activity+json"
    },
    {
      "href": "https://gleasonator.com/users/alex",
      "rel": "self",
      "type": "application/ld+json; profile=\"https://www.w3.org/ns/activitystreams\""
    },
    {
      "rel": "http://ostatus.org/schema/1.0/subscribe",
      "template": "https://gleasonator.com/ostatus_subscribe?acct={uri}"
    }
  ],
  "subject": "acct:alex@gleasonator.com"
}
